…
``` r
st_op_peche = op_peche_agreg %>%sf::st_as_sf(coords = c('mean.lon','mean.lat')) #coordinates in sf format

closest_banc = st_op_peche %>% rowwise()%>%
  st_distance(banc_peche) %>% #pour chaque op, determine la distance geographique a tous les bancs
  as.data.frame() %>%
  rowwise()%>%
  summarise(banc.id.min=which.min(c_across(1:nrow(banc_peche)))) #le distance minimale
closest_banc
```

    ## # A tibble: 68 x 1
    ##    banc.id.min
    ##          <int>
    ##  1           2
    ##  2           2
    ##  3           2
    ##  4           3
    ##  5          13
    ##  6          13
    ##  7          13
    ##  8          13
    ##  9          13
    ## 10          13
    ## # ... with 58 more rows
…
